{
  "project_info": {
    "project_number": "1071351173113",
    "firebase_url": "https://college-project-331cc.firebaseio.com",
    "project_id": "college-project-331cc",
    "storage_bucket": "college-project-331cc.appspot.com"
  },
  "client": [
    {
      "client_info": {
        "mobilesdk_app_id": "1:1071351173113:android:3c5b40740774f9a934f728",
        "android_client_info": {
          "package_name": "com.example.collegeproject"
        }
      },
      "oauth_client": [
        {
          "client_id": "1071351173113-glo3k71sgtd8a0akq5j1k9r55b7t0dba.apps.googleusercontent.com",
          "client_type": 1,
          "android_info": {
            "package_name": "com.example.collegeproject",
            "certificate_hash": "df54c437b9100cad414e3bdc0e24a379e6eba6f8"
          }
        },
        {
          "client_id": "1071351173113-qfe67oi3nmnb20e7his722tro5cv5era.apps.googleusercontent.com",
          "client_type": 3
        }
      ],
      "api_key": [
        {
          "current_key": "AIzaSyAZRCgAxdHvByA453RRAvj5Yj8kpMumWtM"
        }
      ],
      "services": {
        "appinvite_service": {
          "other_platform_oauth_client": [
            {
              "client_id": "1071351173113-qfe67oi3nmnb20e7his722tro5cv5era.apps.googleusercontent.com",
              "client_type": 3
            }
          ]
        }
      }
    }
  ],
  "configuration_version": "1"
}